<svg width="16" height="16" viewBox="0 0 16 16" fill="none" xmlns="http://www.w3.org/2000/svg">
<path d="M13.4052 5.75598C13.3927 5.63765 13.376 5.5198 13.3552 5.40265L14.6112 3.51798C14.6495 3.46019 14.6688 3.39188 14.6665 3.32257C14.6642 3.25326 14.6403 3.18639 14.5982 3.13129C14.5561 3.07619 14.4979 3.0356 14.4316 3.01517C14.3653 2.99474 14.2943 2.99549 14.2285 3.01731L12.4818 3.59931C12.361 3.41911 12.223 3.251 12.0698 3.09731C11.6998 2.72798 11.1198 2.33331 10.3338 2.33331C9.51848 2.33331 8.91582 2.56131 8.48515 2.93598C8.05848 3.30665 7.83382 3.79265 7.71848 4.25265C7.62256 4.65969 7.58618 5.07849 7.61048 5.49598C7.61515 5.59265 7.62248 5.67998 7.63048 5.75598C6.79315 5.93398 5.91715 5.66131 5.05982 5.15198C4.11448 4.59065 3.24715 3.77531 2.56982 3.09731C2.52385 3.05117 2.46536 3.0195 2.40159 3.00623C2.33782 2.99296 2.27156 2.99866 2.211 3.02263C2.15043 3.0466 2.09822 3.08779 2.06081 3.14111C2.02339 3.19443 2.00242 3.25754 2.00048 3.32265C1.91582 6.04065 2.47582 9.33065 5.00782 10.9986C3.94315 11.5746 2.89915 11.8433 1.62582 12.0026C1.55489 12.0115 1.4887 12.043 1.43702 12.0924C1.38533 12.1418 1.3509 12.2065 1.3388 12.2769C1.32669 12.3474 1.33756 12.4199 1.3698 12.4837C1.40203 12.5475 1.45392 12.5993 1.51782 12.6313C4.95782 14.3513 9.41382 14.2266 11.9338 10.8666C12.9785 9.47331 13.3285 8.07731 13.4158 7.02731C13.4598 6.50331 13.4378 6.06531 13.4052 5.75598Z" fill="white"/>
</svg>
